…
    ABIA$DepartureHour <- round(ABIA$DepTime/100, 0)

-   Best time of the day to fly in or out of Austin is 5-7 AM

<!-- -->

    ABIA %>%group_by(DepartureHour) %>% summarise(mean_dep_delay = mean(DepDelay, na.rm=TRUE)) %>% arrange(mean_dep_delay)

    ## # A tibble: 26 x 2
    ##    DepartureHour mean_dep_delay
    ##            <dbl>          <dbl>
    ##  1             5         -3.50 
    ##  2             6         -2.40 
    ##  3             7         -0.944
    ##  4             8          0.131
    ##  5             9          4.01 
    ##  6            11          5.12 
    ##  7            10          5.98 
    ##  8            13          7.07 
    ##  9            12          7.61 
    ## 10            15          8.97 
    ## # ... with 16 more rows
…
    ABIA %>% group_by(Dest) %>% summarise(count = n()) %>% arrange(desc(count)) 

    ## # A tibble: 53 x 2
    ##    Dest  count
    ##    <chr> <int>
    ##  1 AUS   49637
    ##  2 DAL    5573
    ##  3 DFW    5506
    ##  4 IAH    3691
    ##  5 PHX    2783
    ##  6 DEN    2673
    ##  7 ORD    2514
    ##  8 HOU    2319
    ##  9 ATL    2252
    ## 10 LAX    1733
    ## # ... with 43 more rows
…
-   2C.

<!-- -->

    billboard %>% filter(weeks_on_chart >= 10) %>% select(performer, year) %>% group_by(year) %>% 
      count()

    ## # A tibble: 64 x 2
    ## # Groups:   year [64]
    ##     year     n
    ##    <int> <int>
    ##  1  1958   373
    ##  2  1959  1367
    ##  3  1960  1313
    ##  4  1961   941
    ##  5  1962  1026
    ##  6  1963   794
    ##  7  1964   632
    ##  8  1965   566
    ##  9  1966   588
    ## 10  1967   590
    ## # ... with 54 more rows
…
